{
  "data": [
    {
      "id": "1010689160",
      "type": "contacts",
      "attributes": {
        "created_at": "2023-12-11T11:23:56.572Z",
        "updated_at": "2025-08-25T15:53:44.401Z",
        "contact_type": "company",
        "name": "teknik istif makineleri",
        "email": "kadir.duran@teknikistif.com",
        "short_name": null,
        "balance": "0.0",
        "trl_balance": "0.0",
        "usd_balance": "0.0",
        "eur_balance": "0.0",
        "gbp_balance": "0.0",
        "tax_number": "8360477578",
        "tax_office": "ANADOLU KURUMLAR V.D.",
        "archived": false,
        "account_type": "customer",
        "city": "İSTANBUL",
        "district": "SANCAKTEPE",
        "address": "YUNUS EMRE MAH.YENİDOĞAN CAD.COŞKU SOK.NO:11 SANCAKTEPE/İSTANBUL",
        "phone": "05423497709",
        "fax": null,
        "is_abroad": false,
        "term_days": 0,
        "invoicing_preferences": {
          "e_invoice_scenario": "commercial",
          "e_invoice_send_to": "urn:mail:defaultpk@teknikistif.com",
          "e_document_note": null,
          "e_document_append_contact_balance": null
        },
        "sharings_count": 1,
        "ibans": [],
        "exchange_rate_type": "buying",
        "opening_balance": {},
        "untrackable": false,
        "country": null,
        "postal_code": "",
        "iban": null,
        "sharing_preview_url": "https://uygulama.parasut.com/666034/portal/preview/1010689160",
        "sharing_preview_path": "/666034/portal/preview/1010689160",
        "payment_reminder_preview_url": "https://uygulama.parasut.com/666034/portal/preview/1010689160/odeme-hatirlat"
      },
      "relationships": {
        "category": {
          "meta": {}
        },
        "price_list": {
          "meta": {}
        },
        "contact_portal": {
          "meta": {}
        },
        "last_sales_invoice": {
          "meta": {}
        },
        "contact_people": {
          "meta": {}
        },
        "activities": {
          "meta": {}
        },
        "e_invoice_inboxes": {
          "meta": {}
        },
        "sharings": {
          "meta": {}
        },
        "tags": {
          "meta": {}
        },
        "comments": {
          "meta": {}
        },
        "operated_by": {
          "meta": {}
        }
      },
      "meta": {
        "created_at": "2023-12-11T11:23:56.572Z",
        "updated_at": "2025-08-25T15:53:44.401Z"
      }
    },
    {
      "id": "1010725864",
      "type": "contacts",
      "attributes": {
        "created_at": "2023-12-12T07:59:39.113Z",
        "updated_at": "2026-06-11T10:36:00.329Z",
        "contact_type": "company",
        "name": "ÖRNEK MAKİNA SAN.TİC.A.Ş.",
        "email": "muhasebe@ornekmakine.com",
        "short_name": "ÖRNEK MAKİNA-ANTEP",
        "balance": "171840.0",
        "trl_balance": "171840.0",
        "usd_balance": "0.0",
        "eur_balance": "0.0",
        "gbp_balance": "0.0",
        "tax_number": "6600444738",
        "tax_office": "ŞEHİTKAMİL VERGİ DAİRESİ MÜD.",
        "archived": false,
        "account_type": "supplier",
        "city": "GAZİANTEP",
        "district": "ŞEHİTKAMİL",
        "address": "2.ORG.SAN.BÖL. HACİ SANİ KONUKOĞLU",
        "phone": "05324347040",
        "fax": null,
        "is_abroad": false,
        "term_days": 0,
        "invoicing_preferences": {
          "e_invoice_scenario": "commercial",
          "e_invoice_send_to": "urn:mail:ornekpk@ornekmakina.com",
          "e_document_note": "HAYRETTİN DAYAN",
          "e_document_append_contact_balance": true,
          "e_document_accounts": [
            "1000340089",
            "1000340091"
          ]
        },
        "sharings_count": 0,
        "ibans": [],
        "exchange_rate_type": "buying",
        "opening_balance": {},
        "untrackable": false,
        "country": null,
        "postal_code": "27600",
        "iban": null,
        "sharing_preview_url": "https://uygulama.parasut.com/666034/portal/preview/1010725864",
        "sharing_preview_path": "/666034/portal/preview/1010725864",
        "payment_reminder_preview_url": "https://uygulama.parasut.com/666034/portal/preview/1010725864/odeme-hatirlat"
      },
      "relationships": {
        "category": {
          "meta": {}
        },
        "price_list": {
          "meta": {}
        },
        "contact_portal": {
          "meta": {}
        },
        "last_sales_invoice": {
          "meta": {}
        },
        "contact_people": {
          "meta": {}
        },
        "activities": {
          "meta": {}
        },
        "e_invoice_inboxes": {
          "meta": {}
        },
        "sharings": {
          "meta": {}
        },
        "tags": {
          "meta": {}
        },
        "comments": {
          "meta": {}
        },
        "operated_by": {
          "meta": {}
        }
      },
      "meta": {
        "created_at": "2023-12-12T07:59:39.113Z",
        "updated_at": "2026-06-11T10:36:00.329Z"
      }
    },
    {
      "id": "1010726302",
      "type": "contacts",
      "attributes": {
        "created_at": "2023-12-12T08:08:12.364Z",
        "updated_at": "2026-06-09T12:29:58.248Z",
        "contact_type": "company",
        "name": "AKKUŞLAR FORKLİFT PARÇALARI SANAYİ VE TİCARET LİMİTED ŞİRKETİ",
        "email": "info@akkuslarforklift.com.tr",
        "short_name": "AKKUŞLAR FORKLİFT",
        "balance": "30240.0",
        "trl_balance": "30240.0",
        "usd_balance": "0.0",
        "eur_balance": "0.0",
        "gbp_balance": "0.0",
        "tax_number": "0310548519",
        "tax_office": "SARIGAZİ VERGİ DAİRESİ MÜD.",
        "archived": false,
        "account_type": "customer",
        "city": "İstanbul",
        "district": "Ümraniye",
        "address": "Dudullu Osb Mah. İmes Sanayi Sitesi C Blok 302 Sokak No:4",
        "phone": "05333424666",
        "fax": null,
        "is_abroad": false,
        "term_days": 0,
        "invoicing_preferences": {
          "e_invoice_scenario": "commercial",
          "e_invoice_send_to": "urn:mail:defaultpk@akkuslarforklift.com.tr",
          "e_document_note": "HAYRETTİN DAYAN",
          "e_document_append_contact_balance": false,
          "e_document_accounts": [
            "1000340089",
            "1000340091"
          ]
        },
        "sharings_count": 0,
        "ibans": [],
        "exchange_rate_type": "buying",
        "opening_balance": {},
        "untrackable": false,
        "country": null,
        "postal_code": "34775",
        "iban": null,
        "sharing_preview_url": "https://uygulama.parasut.com/666034/portal/preview/1010726302",
        "sharing_preview_path": "/666034/portal/preview/1010726302",
        "payment_reminder_preview_url": "https://uygulama.parasut.com/666034/portal/preview/1010726302/odeme-hatirlat"
      },
      "relationships": {
        "category": {
          "meta": {}
        },
        "price_list": {
          "meta": {}
        },
        "contact_portal": {
          "meta": {}
        },
        "last_sales_invoice": {
          "meta": {}
        },
        "contact_people": {
          "meta": {}
        },
        "activities": {
          "meta": {}
        },
        "e_invoice_inboxes": {
          "meta": {}
        },
        "sharings": {
          "meta": {}
        },
        "tags": {
          "meta": {}
        },
        "comments": {
          "meta": {}
        },
        "operated_by": {
          "meta": {}
        }
      },
      "meta": {
        "created_at": "2023-12-12T08:08:12.364Z",
        "updated_at": "2026-06-09T12:29:58.248Z"
      }
    },
    {
      "id": "1010743830",
      "type": "contacts",
      "attributes": {
        "created_at": "2023-12-12T12:56:13.697Z",
        "updated_at": "2026-06-10T09:55:38.880Z",
        "contact_type": "company",
        "name": "HİRA PARTS METAL SANAYİ VE TİCARET LİMİTED ŞİRKETİ",
        "email": "alibahadir@hiraparts.com",
        "short_name": "HİRA PARTS",
        "balance": "438560.0",
        "trl_balance": "438560.0",
        "usd_balance": "0.0",
        "eur_balance": "0.0",
        "gbp_balance": "0.0",
        "tax_number": "4631191427",
        "tax_office": "Gemlik Vergi Dairesi",
        "archived": false,
        "account_type": "customer",
        "city": "Bursa",
        "district": "Gemlik",
        "address": "Dr. Ziya Kaya Mahallesi İpekli Sokak No:13/A",
        "phone": "05433691277",
        "fax": null,
        "is_abroad": false,
        "term_days": 30,
        "invoicing_preferences": {
          "e_archive_has_online_sales": false,
          "e_invoice_scenario": "commercial",
          "e_invoice_send_to": "urn:mail:181865defaultpk@isnet.com",
          "e_document_note": "Hayrettin Dayan",
          "e_document_append_contact_balance": true,
          "e_document_accounts": [
            "1000340089",
            "1000340091"
          ]
        },
        "sharings_count": 0,
        "ibans": [],
        "exchange_rate_type": "buying",
        "opening_balance": {},
        "untrackable": false,
        "country": null,
        "postal_code": "16600",
        "iban": null,
        "sharing_preview_url": "https://uygulama.parasut.com/666034/portal/preview/1010743830",
        "sharing_preview_path": "/666034/portal/preview/1010743830",
        "payment_reminder_preview_url": "https://uygulama.parasut.com/666034/portal/preview/1010743830/odeme-hatirlat"
      },
      "relationships": {
        "category": {
          "meta": {}
        },
        "price_list": {
          "meta": {}
        },
        "contact_portal": {
          "meta": {}
        },
        "last_sales_invoice": {
          "meta": {}
        },
        "contact_people": {
          "meta": {}
        },
        "activities": {
          "meta": {}
        },
        "e_invoice_inboxes": {
          "meta": {}
        },
        "sharings": {
          "meta": {}
        },
        "tags": {
          "meta": {}
        },
        "comments": {
          "meta": {}
        },
        "operated_by": {
          "meta": {}
        }
      },
      "meta": {
        "created_at": "2023-12-12T12:56:13.697Z",
        "updated_at": "2026-06-10T09:55:38.880Z"
      }
    },
    {
      "id": "1010814464",
      "type": "contacts",
      "attributes": {
        "created_at": "2023-12-14T06:25:18.960Z",
        "updated_at": "2025-08-25T15:52:10.452Z",
        "contact_type": "company",
        "name": "ONUR YEDEK PARÇA MAKİNA KALIP SANAYİ VE TİCARET LİMİTED ŞİRKETİ",
        "email": "onurmakina_yedekparca@hotmail.com",
        "short_name": "onur makina",
        "balance": "0.0",
        "trl_balance": "0.0",
        "usd_balance": "0.0",
        "eur_balance": "0.0",
        "gbp_balance": "0.0",
        "tax_number": "6430383548",
        "tax_office": "Bayrampaşa Vergi Dairesi",
        "archived": false,
        "account_type": "customer",
        "city": "İstanbul",
        "district": "Bayrampaşa",
        "address": "Yeni Doğan Mah.Karakaş Sok.Emintaş Rami\nSan. St. No 87/175",
        "phone": "05326229404",
        "fax": null,
        "is_abroad": false,
        "term_days": 0,
        "invoicing_preferences": {
          "e_invoice_scenario": "basic",
          "e_invoice_send_to": "urn:mail:defaultpk@hotmail.com",
          "e_document_note": null,
          "e_document_append_contact_balance": null
        },
        "sharings_count": 0,
        "ibans": [],
        "exchange_rate_type": "buying",
        "opening_balance": {},
        "untrackable": false,
        "country": null,
        "postal_code": "34791",
        "iban": null,
        "sharing_preview_url": "https://uygulama.parasut.com/666034/portal/preview/1010814464",
        "sharing_preview_path": "/666034/portal/preview/1010814464",
        "payment_reminder_preview_url": "https://uygulama.parasut.com/666034/portal/preview/1010814464/odeme-hatirlat"
      },
      "relationships": {
        "category": {
          "meta": {}
        },
        "price_list": {
          "meta": {}
        },
        "contact_portal": {
          "meta": {}
        },
        "last_sales_invoice": {
          "meta": {}
        },
        "contact_people": {
          "meta": {}
        },
        "activities": {
          "meta": {}
        },
        "e_invoice_inboxes": {
          "meta": {}
        },
        "sharings": {
          "meta": {}
        },
        "tags": {
          "meta": {}
        },
        "comments": {
          "meta": {}
        },
        "operated_by": {
          "meta": {}
        }
      },
      "meta": {
        "created_at": "2023-12-14T06:25:18.960Z",
        "updated_at": "2025-08-25T15:52:10.452Z"
      }
    }
  ],
  "links": {
    "self": "https://api.parasut.com/v4/666034/contacts?page%5Bnumber%5D=1&page%5Bsize%5D=5",
    "first": "https://api.parasut.com/v4/666034/contacts?page%5Bnumber%5D=1&page%5Bsize%5D=5",
    "prev": null,
    "next": "https://api.parasut.com/v4/666034/contacts?page%5Bnumber%5D=2&page%5Bsize%5D=5",
    "last": "https://api.parasut.com/v4/666034/contacts?page%5Bnumber%5D=84&page%5Bsize%5D=5"
  },
  "meta": {
    "current_page": 1,
    "total_pages": 84,
    "total_count": 417,
    "per_page": 5,
    "payable_total": "1607943.53",
    "collectible_total": "2950367.59",
    "supplier_payments_due_in_thirty_days_total": "1375211.53",
    "customer_payments_due_in_thirty_days_total": "2947326.98",
    "export_url": "https://api.parasut.com/v4/666034/contacts/export"
  }
}